{
  "production": false,
  "dir": {
    "src": ".",
    "public": "public/app",
    "assets": "resources"
  },
  "browserSync": {
    "static": false,
    "proxy": "http://localhost:8080",
    "options": {
      "browser": ["google chrome"],
      "open": false
    }
  },
  "tasks":{
    "bower":{
      "overrides": {
        "angular":{
          "main": "angular.min.js"
        },
        "angular-animate":{
          "main": "angular-animate.min.js"
        },
        "angular-aria":{
          "main": "angular-aria.min.js"
        },
        "angular-material":{
          "main": [
            "angular-material.min.js",
            "angular-material.css"
          ]
        },
        "material-design-icons":{
          "main":[
            "iconfont/MaterialIcons-Regular.eot",
            "iconfont/MaterialIcons-Regular.ttf",
            "iconfont/MaterialIcons-Regular.woff",
            "iconfont/MaterialIcons-Regular.woff2"
          ]
        }
      }
    }
  }
}
